[
  {
    "name": "Fresh pasta",
    "id": "fresh-pasta",
    "description": "Go the extra mile for a classic Italian meal and make your own fresh pasta dough. Our simple recipe can be used to make any style or shape",
    "image": "https://www.bbcgoodfood.com/sites/default/files/styles/recipe/public/recipe/recipe-image/2018/03/fresh-pasta.jpg",
    "ingredients": [
      {
        "amount": "300",
        "unit": "gr",
        "name": "pasta flour"
      },
      {
        "amount": "2",
        "unit": "unit",
        "name": "eggs"
      },
      {
        "amount": "4",
        "unit": "unit",
        "name": "egg yolk"
      },
      {
        "amount": "10",
        "unit": "gr",
        "name": "semolina flour"
      }
    ],
    "steps": [
      "Put the flour in a food processor with ¾ of your egg mixture and a pinch of salt. Blitz to large crumbs – they should come together to form a dough when squeezed (if it feels a little dry gradually add a bit more egg). Tip the dough onto a lightly floured surface, knead for 1 min or until nice and smooth – don’t worry if it’s quite firm as it will soften when it rests. Cover with cling film and leave to rest for 30 mins.",
      "Cut away ¼ of the dough (keep the rest covered with cling film) and feed it through the widest setting on your pasta machine. (If you don’t have a machine, use a heavy rolling pin to roll the dough as thinly as possible.) Then fold into three, give the dough a quarter turn and feed through the pasta machine again. Repeat this process once more then continue to pass the dough through the machine, progressively narrowing the rollers, one notch at a time, until you have a smooth sheet of pasta. On the narrowest setting, feed the sheet through twice.",
      "Cut as required to use for filled pastas like tortellini, or cut into lengths to make spaghetti, linguine, tagliatelle, or pappardelle. Then, dust in semolina flour and set aside, or hang until dry (an hour will be enough time.) Store in a sealed container in the fridge and use within a couple of days, or freeze for 1 month."
    ]
  },
  {
    "name": "Peanut butter cookies",
    "id": "peanut-butter-cookies",
    "description": "With just three ingredients, these simple peanut butter cookies will delight kids and grown-ups alike – and they're gluten-free, to",
    "image": "https://www.bbcgoodfood.com/sites/default/files/styles/recipe/public/user-collections/my-colelction-image/2015/12/peanut-butter-cookies.jpg",
    "ingredients": [
      {
        "amount": "200",
        "unit": "gr",
        "name": "peanut butter"
      },
      {
        "amount": "175",
        "unit": "gr",
        "name": "golden sugar"
      },
      {
        "amount": "0.25",
        "unit": "tsp",
        "name": "table salt"
      }
    ],
    "steps": [
      "Heat oven to 180C/160C fan/gas 4 and line 2 large baking trays with baking parchment.",

      "Measure the peanut butter and sugar into a bowl. Add ¼ tsp fine table salt and mix well with a wooden spoon. Add the egg and mix again until the mixture forms a dough.",

      "Break off cherry tomato sized chunks of dough and place, well spaced apart, on the trays. Press the cookies down with the back of a fork to squash them a little. The cookies can now be frozen for 2 months, cook from frozen adding an extra min or 2 to the cooking time.",

      "Bake for 12 mins, until golden around the edges and paler in the centre. Cool on the trays for 10 mins, then transfer to a wire rack and cool completely. Store in a cookie jar for up to 3 days."
    ]
  },
  {
    "name": "Shortbread biscuits",
    "id": "shortbread-biscuits",
    "description": "Make these moreish shortbread biscuits using just three ingredients. They're wonderfully crumbly and go perfectly with a cup of tea for a mid-morning treat    ",
    "image": "https://www.bbcgoodfood.com/sites/default/files/styles/recipe/public/recipe/recipe-image/2018/11/shortbread.jpg",
    "ingredients": [
      {
        "amount": "150",
        "unit": "gr",
        "name": "plain flour"
      },
      {
        "amount": "100",
        "unit": "gr",
        "name": "butter"
      },
      {
        "amount": "50",
        "unit": "gr",
        "name": "sugar"
      }
    ],
    "steps": [
      "Heat oven 170C/150C fan/gas 3. Put the flour, butter and sugar into a mixing bowl. Use your hands to combine the ingredients until the mixture looks like breadcrumbs, then squeeze until it comes together as a dough.",
      "On a lightly floured surface, use a rolling pin to roll out the dough to a thickness of ½ cm. Cut the dough into fingers and place on a lined baking tray. Use a fork to create imprints, then sprinkle with the remaining caster sugar.",
      "Chill the dough in the fridge for 20 mins, then bake for 15-20 mins until golden brown. Remove the shortbread fingers from the oven and leave to cool on the tray for 10 mins."
    ]
  },
  {
    "name": "Orange Sorbet",
    "id": "orange-sorbet",
    "description": "Make an easy, refreshing orange sorbet using just three ingredients.",
    "image": "https://www.bbcgoodfood.com/sites/default/files/styles/recipe/public/recipe/recipe-image/2008/12/orange-sorbet.jpg",
    "ingredients": [
      {
        "amount": "300",
        "unit": "ml",
        "name": "orange"
      },
      {
        "amount": "2",
        "unit": "unit",
        "name": "star anise"
      },
      {
        "amount": "100",
        "unit": "gr",
        "name": "sugar"
      }
    ],
    "steps": [
      "Put the orange juice, star anise and sugar into a pan. Bring to the boil, stirring, until the sugar has dissolved, then remove the star anise. Cool, then pour into an ice-cream machine and churn until smooth and frozen. (If you don’t have an ice-cream machine, cool the mixture, then tip into a freezerproof container and freeze until firm, whisking every hour with a fork to break up the ice crystals.)"
    ]
  },
  {
    "name": "Orange & coconut salad",
    "id": "orange-coconut-salad",
    "description": "Cool down a curry with this fresh and light fruity salad with toasted creamy coconut, parsley, onion and lime",
    "image": "https://www.bbcgoodfood.com/sites/default/files/styles/recipe/public/recipe_images/recipe-image-legacy-id--1159459_11.jpg",
    "ingredients": [
      {
        "amount": "2",
        "unit": "unit",
        "name": "orange"
      },
      {
        "amount": "3",
        "unit": "tbsp",
        "name": "toasted coconut"
      },
      {
        "amount": "1",
        "unit": "tbsp",
        "name": "chopped parsley"
      },
      {
        "amount": "0.5",
        "unit": "unit",
        "name": "red onion"
      },
      {
        "amount": "1",
        "unit": "unit",
        "name": "lime juice"
      }
    ],
    "steps": [
      "Cut away the peel and pith from the oranges, then thinly slice the flesh. Mix with coconut, parsley, red onion and lime juice."
    ]
  }
]
